<svg width="130" height="64" viewBox="0 0 130 64" fill="none" xmlns="http://www.w3.org/2000/svg">
<path d="M45.0188 17.4073C41.2106 18.5598 38.0539 21.466 35.3982 26.1761L33.7447 29.1324L27.2308 31.3371C23.623 32.5397 20.4162 33.8926 20.0654 34.3435C19.7147 34.8446 19.4642 36.6986 19.4642 38.8031C19.4642 41.4587 19.2637 42.5611 18.6624 43.0622C18.0111 43.5632 17.9108 44.415 18.0612 46.8703C18.3117 50.5782 19.1635 51.7808 21.9695 52.2318C25.026 52.7328 25.477 52.332 25.477 49.0249C25.477 45.6176 26.8299 43.2125 29.4856 41.9097C35.298 38.9534 41.6616 43.6133 40.8098 50.1273C40.5592 51.9812 40.6093 52.7829 41.1104 53.0836C42.1627 53.7851 85.3049 53.6347 85.9563 52.9834C86.307 52.6326 86.4573 51.6806 86.307 50.8288L86.1066 49.2754L86.6077 50.8288C87.3092 52.9834 89.9648 55.4386 91.9691 55.8395C98.0822 56.9919 102.943 51.0292 100.337 45.7178C99.0342 43.1624 97.08 41.8596 93.9734 41.4587L91.3678 41.1581L93.6728 41.0579C97.982 40.9577 101.389 44.3148 101.389 48.7744C101.389 50.2776 101.64 51.7307 101.991 52.0814C102.692 52.7829 109.607 51.7808 110.609 50.7786C111.511 49.8767 112.012 44.2647 111.21 43.8138C110.859 43.5632 110.659 40.5067 110.609 34.5941C110.559 23.3701 110.108 18.0587 109.156 17.4574C108.254 16.8562 46.8727 16.8562 45.0188 17.4073ZM108.454 19.0609C108.655 19.3615 108.905 25.1238 109.056 31.8382C109.206 38.5525 109.507 44.1645 109.707 44.3148C110.258 44.6656 110.258 48.5739 109.757 49.4258C109.456 49.8767 105.298 50.929 103.343 51.0292C103.293 51.0292 103.143 49.8266 102.993 48.3234C102.441 42.7615 98.2325 39.1538 92.8209 39.6048C87.8603 40.0056 84.6034 43.8138 84.6034 49.1251V52.0313H63.3079H42.0625L42.3631 49.5761C43.4153 40.4065 31.3395 35.8968 25.6774 43.3127C24.6252 44.6656 24.2243 45.818 24.074 48.0729L23.8736 51.0793L22.2702 50.7285C20.1155 50.2776 19.865 49.9268 19.5644 46.9705C19.3639 44.9161 19.5143 44.2647 20.1657 43.914C20.817 43.5632 20.9674 42.6613 20.9674 39.5046C20.9674 34.6943 20.7669 34.8947 28.9845 32.239L34.7468 30.335L36.7511 26.8275C39.056 22.8189 42.2629 19.7624 44.9186 19.0609C47.7246 18.3093 108.003 18.3093 108.454 19.0609ZM89.7143 42.511C88.7623 43.1123 87.6599 44.415 87.1087 45.6677C86.5575 46.8202 86.1066 47.4716 86.1066 47.1208C86.1066 45.317 89.2633 41.5088 90.8166 41.5088C91.1173 41.5088 90.6162 41.9598 89.7143 42.511ZM96.6792 43.8138C98.5832 44.7658 99.8359 47.5718 99.4351 49.7765C99.0843 51.6806 97.0299 53.9354 95.2762 54.3362C90.6663 55.5388 86.3571 50.6283 88.3113 46.4193C89.8145 43.3127 93.4723 42.1602 96.6792 43.8138Z" fill="white"/>
<path d="M43.215 20.2635C42.3632 20.6643 40.9602 21.9671 40.1585 23.1196C37.9537 26.2763 35.8993 29.9842 36.3503 30.0343C36.5507 30.0844 37.3525 30.0343 38.1542 29.9842C39.2064 29.9341 39.5071 30.1346 39.5071 30.9363C39.5071 32.4395 40.0582 32.5397 44.3674 31.9384C49.9293 31.1868 51.9336 30.5855 52.5349 29.4832C52.8355 28.9821 53.1863 26.4767 53.3867 24.0215L53.6874 19.4617H49.2278C46.2214 19.4617 44.2672 19.7624 43.215 20.2635ZM51.8334 24.4223C51.3323 29.7838 52.134 29.2827 42.6137 30.6857C41.7619 30.8361 41.3109 30.5354 41.0103 29.6836C40.7096 28.932 40.1083 28.481 39.5071 28.481C38.5049 28.481 38.5049 28.481 39.6073 26.4266C40.2587 25.3243 41.6116 23.6206 42.6638 22.6686C44.4176 21.0151 44.6681 20.965 48.3259 20.965H52.1842L51.8334 24.4223Z" fill="white"/>
<path d="M29.6358 42.3105C27.0302 43.6133 25.8277 46.0185 26.0782 49.3255C26.2285 51.2797 26.6294 52.3821 27.5313 53.3341C30.1369 56.09 33.3437 56.7414 36.4504 55.138C38.8054 53.9855 40.0581 52.0814 40.3587 49.4759C40.9099 43.7135 34.8971 39.705 29.6358 42.3105ZM36.3001 43.8138C41.5112 47.2711 38.5048 55.1881 32.2915 54.3864C29.3352 53.9855 27.4812 51.7808 27.4812 48.7243C27.4812 46.7701 27.7317 46.1688 29.1848 44.7157C30.5878 43.3127 31.2893 43.012 32.9429 43.012C34.0953 43.012 35.5986 43.3628 36.3001 43.8138Z" fill="white"/>
</svg>
