<svg width="24" height="25" viewBox="0 0 24 25" fill="none" xmlns="http://www.w3.org/2000/svg">
<path d="M23.0107 10.4588C23.1552 11.2487 23.2342 12.0757 23.2342 12.9395C23.2342 19.6882 18.8159 24.4874 12.1442 24.4874C5.76146 24.4874 0.591553 19.2007 0.591553 12.6738C0.591553 6.14696 5.76146 0.860291 12.1442 0.860291C15.2636 0.860291 17.8697 2.03416 19.8701 3.93912L16.6132 7.26925V7.26166C15.4003 6.08019 13.8625 5.47488 12.1442 5.47488C8.33197 5.47488 5.23438 8.76788 5.23438 12.6666C5.23438 16.5645 8.33191 19.8654 12.1442 19.8654C15.6028 19.8654 17.9564 17.8422 18.4409 15.0662H12.1442V10.4588H23.0107Z" fill="#A8ABAF"/>
</svg>
